{
	"info": {
		"_postman_id": "fe4c3251-ff63-46bd-b57a-d9407ad6ddf9",
		"name": "tp-nodejs",
		"schema": "https://schema.getpostman.com/json/collection/v2.1.0/collection.json",
		"_exporter_id": "25256843"
	},
	"item": [
		{
			"name": "STATUS",
			"event": [
				{
					"listen": "test",
					"script": {
						"exec": [
							"pm.test(\"Status code is 200\", function () {",
							"    pm.response.to.have.status(200);",
							"})"
						],
						"type": "text/javascript"
					}
				}
			],
			"request": {
				"method": "GET",
				"header": [],
				"url": {
					"raw": "{{URL_APP}}/status",
					"host": [
						"{{URL_APP}}"
					],
					"path": [
						"status"
					]
				}
			},
			"response": []
		},
		{
			"name": "CITY",
			"event": [
				{
					"listen": "test",
					"script": {
						"exec": [
							"pm.test(\"Body contains message\", function () {",
							"    pm.expect(pm.response.text()).to.include(\"Bordeaux\");",
							"})"
						],
						"type": "text/javascript"
					}
				}
			],
			"request": {
				"method": "GET",
				"header": [],
				"url": {
					"raw": "{{URL_APP}}/city",
					"host": [
						"{{URL_APP}}"
					],
					"path": [
						"city"
					]
				}
			},
			"response": []
		},
		{
			"name": "404",
			"event": [
				{
					"listen": "test",
					"script": {
						"exec": [
							"pm.test(\"Status code is 404\", function () {",
							"    pm.response.to.have.status(404);",
							"})"
						],
						"type": "text/javascript"
					}
				}
			],
			"request": {
				"method": "GET",
				"header": [],
				"url": {
					"raw": "{{URL_APP}}/test",
					"host": [
						"{{URL_APP}}"
					],
					"path": [
						"test"
					]
				}
			},
			"response": []
		}
	],
	"event": [
		{
			"listen": "prerequest",
			"script": {
				"type": "text/javascript",
				"exec": [
					""
				]
			}
		},
		{
			"listen": "test",
			"script": {
				"type": "text/javascript",
				"exec": [
					""
				]
			}
		}
	],
	"variable": [
		{
			"key": "URL_APP",
			"value": "http://localhost:3000",
			"type": "string"
		}
	]
}